%YAML 1.1
%TAG !u! tag:unity3d.com,2011:
--- !u!78 &1
TagManager:
  serializedVersion: 2
  tags:
  - Bullet
  - Enemy
  - World
  - MusicPlayer
  - LevelManager
  - EnemyFormation
  - Bound
  - ItemLay
  - Boom
  - ItemPower
  - Bomb
  - ItemSpeed
  - Dtorable
  - ExplosionFX
  - ground
  - Obstacle
  - HealthBar
  - BombPickup
  - BlueItem
  - Dead
  - Clear
  - None
  - RedItem
  - End
  - Canvas
  - Scene1
  - SceneMid
  - Scene2
  - Scene3
  - Scene4
  layers:
  - Default
  - TransparentFX
  - Ignore Raycast
  - 
  - Water
  - UI
  - 
  - 
  - PostProcessing
  - SceneSelect
  - Ground
  - BoomCheck
  - 
  - 
  - 
  - 
  - 
  - 
  - 
  - 
  - 
  - 
  - 
  - 
  - 
  - 
  - 
  - 
  - 
  - 
  - 
  - 
  m_SortingLayers:
  - name: Default
    uniqueID: 0
    locked: 0
  - name: BG
    uniqueID: 731834619
    locked: 0
  - name: FG
    uniqueID: 3781672879
    locked: 0
